…
```
monthly data:
```ruby
summarized_month <- cyclistic_v2 %>%
  group_by(member_casual, year_month) %>%                      #groups by usertype and month
  summarize(number_of_rides = n()							            #calculates the number of rides and average duration 
            ,average_duration = mean(ride_length)) %>% 		# calculates the average duration
  arrange(member_casual, year_month)							                  	# sorts

>>> `summarise()` has grouped output by 'member_casual'. You can override using the `.groups` argument.

>>> print(summarized_month)
    # A tibble: 24 × 4
    # Groups:   member_casual [2]
       member_casual year_month number_of_rides average_duration
       <chr>         <chr>                <int>            <dbl>
     1 casual        2021-07             442011            1968.
     2 casual        2021-08             412608            1727.
     3 casual        2021-09             363840            1669.
     4 casual        2021-10             257203            1721.
     5 casual        2021-11             106884            1388.
     6 casual        2021-12              69729            1410.
     7 casual        2022-01              18517            1823.
     8 casual        2022-02              21414            1603.
     9 casual        2022-03              89874            1958.
    10 casual        2022-04             126398            1772.
    # … with 14 more rows
…
